^SolidGreenColor.fx
E:\Projects\FYP Work\Final_Year_Project\Final_Year_Project\Base Engine\x64\Release\SolidGreenColor.cso
^SolidGreenColor.fx
E:\Projects\FYP Work\Final_Year_Project\Final_Year_Project\Base Engine\x64\Release\SolidGreenColor.cso
^SolidGreenColor.fx
E:\Projects\FYP Work\Final_Year_Project\Final_Year_Project\Base Engine\x64\Release\SolidGreenColor.cso
^Assets\Shaders\SpriteShader.fx
^Tutorials\SolidGreenColor.fx
^Tutorials\TextureMap.fx
^Tutorials\TextureMapTextureDemo.fx
^Tutorials\triangleTexture.fx
E:\Projects\FYP Work\Final_Year_Project\Final_Year_Project\Base Engine\x64\Release\SpriteShader.cso
E:\Projects\FYP Work\Final_Year_Project\Final_Year_Project\Base Engine\x64\Release\SolidGreenColor.cso
E:\Projects\FYP Work\Final_Year_Project\Final_Year_Project\Base Engine\x64\Release\TextureMap.cso
E:\Projects\FYP Work\Final_Year_Project\Final_Year_Project\Base Engine\x64\Release\TextureMapTextureDemo.cso
E:\Projects\FYP Work\Final_Year_Project\Final_Year_Project\Base Engine\x64\Release\triangleTexture.cso
^Assets\Shaders\SpriteShader.fx
^Tutorials\SolidGreenColor.fx
^Tutorials\TextureMap.fx
^Tutorials\TextureMapTextureDemo.fx
^Tutorials\triangleTexture.fx
E:\Projects\FYP Work\Final_Year_Project\Final_Year_Project\Base Engine\x64\Release\SpriteShader.cso
E:\Projects\FYP Work\Final_Year_Project\Final_Year_Project\Base Engine\x64\Release\SolidGreenColor.cso
E:\Projects\FYP Work\Final_Year_Project\Final_Year_Project\Base Engine\x64\Release\TextureMap.cso
E:\Projects\FYP Work\Final_Year_Project\Final_Year_Project\Base Engine\x64\Release\TextureMapTextureDemo.cso
E:\Projects\FYP Work\Final_Year_Project\Final_Year_Project\Base Engine\x64\Release\triangleTexture.cso
^Assets\Shaders\SpriteShader.fx
^Tutorials\SolidGreenColor.fx
^Tutorials\TextureMap.fx
^Tutorials\TextureMapTextureDemo.fx
^Tutorials\triangleTexture.fx
E:\Projects\FYP Work\Final_Year_Project\Final_Year_Project\Base Engine\x64\Release\SpriteShader.cso
E:\Projects\FYP Work\Final_Year_Project\Final_Year_Project\Base Engine\x64\Release\SolidGreenColor.cso
E:\Projects\FYP Work\Final_Year_Project\Final_Year_Project\Base Engine\x64\Release\TextureMap.cso
E:\Projects\FYP Work\Final_Year_Project\Final_Year_Project\Base Engine\x64\Release\TextureMapTextureDemo.cso
E:\Projects\FYP Work\Final_Year_Project\Final_Year_Project\Base Engine\x64\Release\triangleTexture.cso
^Assets\Shaders\SpriteShader.fx
^Tutorials\SolidGreenColor.fx
^Tutorials\TextureMap.fx
^Tutorials\TextureMapTextureDemo.fx
^Tutorials\triangleTexture.fx
E:\Projects\FYP Work\Final_Year_Project\Final_Year_Project\Base Engine\x64\Release\SpriteShader.cso
E:\Projects\FYP Work\Final_Year_Project\Final_Year_Project\Base Engine\x64\Release\SolidGreenColor.cso
E:\Projects\FYP Work\Final_Year_Project\Final_Year_Project\Base Engine\x64\Release\TextureMap.cso
E:\Projects\FYP Work\Final_Year_Project\Final_Year_Project\Base Engine\x64\Release\TextureMapTextureDemo.cso
E:\Projects\FYP Work\Final_Year_Project\Final_Year_Project\Base Engine\x64\Release\triangleTexture.cso
^Assets\Shaders\SpriteShader.fx
^Tutorials\SolidGreenColor.fx
^Tutorials\TextureMap.fx
^Tutorials\TextureMapTextureDemo.fx
^Tutorials\triangleTexture.fx
E:\Projects\FYP Work\Final_Year_Project\Final_Year_Project\Base Engine\x64\Release\SpriteShader.cso
E:\Projects\FYP Work\Final_Year_Project\Final_Year_Project\Base Engine\x64\Release\SolidGreenColor.cso
E:\Projects\FYP Work\Final_Year_Project\Final_Year_Project\Base Engine\x64\Release\TextureMap.cso
E:\Projects\FYP Work\Final_Year_Project\Final_Year_Project\Base Engine\x64\Release\TextureMapTextureDemo.cso
E:\Projects\FYP Work\Final_Year_Project\Final_Year_Project\Base Engine\x64\Release\triangleTexture.cso
^Assets\Shaders\SpriteShader.fx
^Tutorials\SolidGreenColor.fx
^Tutorials\TextureMap.fx
^Tutorials\TextureMapTextureDemo.fx
^Tutorials\triangleTexture.fx
E:\Projects\FYP Work\Final_Year_Project\Final_Year_Project\Base Engine\x64\Release\SpriteShader.cso
E:\Projects\FYP Work\Final_Year_Project\Final_Year_Project\Base Engine\x64\Release\SolidGreenColor.cso
E:\Projects\FYP Work\Final_Year_Project\Final_Year_Project\Base Engine\x64\Release\TextureMap.cso
E:\Projects\FYP Work\Final_Year_Project\Final_Year_Project\Base Engine\x64\Release\TextureMapTextureDemo.cso
E:\Projects\FYP Work\Final_Year_Project\Final_Year_Project\Base Engine\x64\Release\triangleTexture.cso
^Assets\Shaders\SpriteShader.fx
^Tutorials\SolidGreenColor.fx
^Tutorials\TextureMap.fx
^Tutorials\TextureMapTextureDemo.fx
^Tutorials\triangleTexture.fx
E:\Projects\FYP Work\Final_Year_Project\Final_Year_Project\Base Engine\x64\Release\SpriteShader.cso
E:\Projects\FYP Work\Final_Year_Project\Final_Year_Project\Base Engine\x64\Release\SolidGreenColor.cso
E:\Projects\FYP Work\Final_Year_Project\Final_Year_Project\Base Engine\x64\Release\TextureMap.cso
E:\Projects\FYP Work\Final_Year_Project\Final_Year_Project\Base Engine\x64\Release\TextureMapTextureDemo.cso
E:\Projects\FYP Work\Final_Year_Project\Final_Year_Project\Base Engine\x64\Release\triangleTexture.cso
^Assets\Shaders\SpriteShader.fx
^Tutorials\SolidGreenColor.fx
^Tutorials\TextureMap.fx
^Tutorials\TextureMapTextureDemo.fx
^Tutorials\triangleTexture.fx
E:\Projects\FYP Work\Final_Year_Project\Final_Year_Project\Base Engine\x64\Release\SpriteShader.cso
E:\Projects\FYP Work\Final_Year_Project\Final_Year_Project\Base Engine\x64\Release\SolidGreenColor.cso
E:\Projects\FYP Work\Final_Year_Project\Final_Year_Project\Base Engine\x64\Release\TextureMap.cso
E:\Projects\FYP Work\Final_Year_Project\Final_Year_Project\Base Engine\x64\Release\TextureMapTextureDemo.cso
E:\Projects\FYP Work\Final_Year_Project\Final_Year_Project\Base Engine\x64\Release\triangleTexture.cso
^Assets\Shaders\SpriteShader.fx
^Tutorials\SolidGreenColor.fx
^Tutorials\TextureMap.fx
^Tutorials\TextureMapTextureDemo.fx
^Tutorials\triangleTexture.fx
E:\Projects\FYP Work\Final_Year_Project\Final_Year_Project\Base Engine\x64\Release\SpriteShader.cso
E:\Projects\FYP Work\Final_Year_Project\Final_Year_Project\Base Engine\x64\Release\SolidGreenColor.cso
E:\Projects\FYP Work\Final_Year_Project\Final_Year_Project\Base Engine\x64\Release\TextureMap.cso
E:\Projects\FYP Work\Final_Year_Project\Final_Year_Project\Base Engine\x64\Release\TextureMapTextureDemo.cso
E:\Projects\FYP Work\Final_Year_Project\Final_Year_Project\Base Engine\x64\Release\triangleTexture.cso
^Assets\Shaders\SpriteShader.fx
^Tutorials\SolidGreenColor.fx
^Tutorials\TextureMap.fx
^Tutorials\TextureMapTextureDemo.fx
^Tutorials\triangleTexture.fx
E:\Projects\FYP Work\Final_Year_Project\Final_Year_Project\Base Engine\x64\Release\SpriteShader.cso
E:\Projects\FYP Work\Final_Year_Project\Final_Year_Project\Base Engine\x64\Release\SolidGreenColor.cso
E:\Projects\FYP Work\Final_Year_Project\Final_Year_Project\Base Engine\x64\Release\TextureMap.cso
E:\Projects\FYP Work\Final_Year_Project\Final_Year_Project\Base Engine\x64\Release\TextureMapTextureDemo.cso
E:\Projects\FYP Work\Final_Year_Project\Final_Year_Project\Base Engine\x64\Release\triangleTexture.cso
