^E:\PROJECTS\FYP WORK\FINAL_YEAR_PROJECT\FINAL_YEAR_PROJECT\BASE ENGINE\WIN32ENGINE\DEBUG\AMMUNITION.OBJ|E:\PROJECTS\FYP WORK\FINAL_YEAR_PROJECT\FINAL_YEAR_PROJECT\BASE ENGINE\WIN32ENGINE\DEBUG\ARROW.OBJ|E:\PROJECTS\FYP WORK\FINAL_YEAR_PROJECT\FINAL_YEAR_PROJECT\BASE ENGINE\WIN32ENGINE\DEBUG\BEHAVIOUR.OBJ|E:\PROJECTS\FYP WORK\FINAL_YEAR_PROJECT\FINAL_YEAR_PROJECT\BASE ENGINE\WIN32ENGINE\DEBUG\BLANKDEMO.OBJ|E:\PROJECTS\FYP WORK\FINAL_YEAR_PROJECT\FINAL_YEAR_PROJECT\BASE ENGINE\WIN32ENGINE\DEBUG\BOW.OBJ|E:\PROJECTS\FYP WORK\FINAL_YEAR_PROJECT\FINAL_YEAR_PROJECT\BASE ENGINE\WIN32ENGINE\DEBUG\D3DMANAGER.OBJ|E:\PROJECTS\FYP WORK\FINAL_YEAR_PROJECT\FINAL_YEAR_PROJECT\BASE ENGINE\WIN32ENGINE\DEBUG\DX11DEMOBASE.OBJ|E:\PROJECTS\FYP WORK\FINAL_YEAR_PROJECT\FINAL_YEAR_PROJECT\BASE ENGINE\WIN32ENGINE\DEBUG\GAMESPRITE.OBJ|E:\PROJECTS\FYP WORK\FINAL_YEAR_PROJECT\FINAL_YEAR_PROJECT\BASE ENGINE\WIN32ENGINE\DEBUG\GAMESPRITEDEMO.OBJ|E:\PROJECTS\FYP WORK\FINAL_YEAR_PROJECT\FINAL_YEAR_PROJECT\BASE ENGINE\WIN32ENGINE\DEBUG\GENERAL.OBJ|E:\PROJECTS\FYP WORK\FINAL_YEAR_PROJECT\FINAL_YEAR_PROJECT\BASE ENGINE\WIN32ENGINE\DEBUG\PROJECTILE.OBJ|E:\PROJECTS\FYP WORK\FINAL_YEAR_PROJECT\FINAL_YEAR_PROJECT\BASE ENGINE\WIN32ENGINE\DEBUG\RECRUIT.OBJ|E:\PROJECTS\FYP WORK\FINAL_YEAR_PROJECT\FINAL_YEAR_PROJECT\BASE ENGINE\WIN32ENGINE\DEBUG\SERGENT.OBJ|E:\PROJECTS\FYP WORK\FINAL_YEAR_PROJECT\FINAL_YEAR_PROJECT\BASE ENGINE\WIN32ENGINE\DEBUG\SOLDIER.OBJ|E:\PROJECTS\FYP WORK\FINAL_YEAR_PROJECT\FINAL_YEAR_PROJECT\BASE ENGINE\WIN32ENGINE\DEBUG\SOURCE.OBJ|E:\PROJECTS\FYP WORK\FINAL_YEAR_PROJECT\FINAL_YEAR_PROJECT\BASE ENGINE\WIN32ENGINE\DEBUG\SPRITE.OBJ|E:\PROJECTS\FYP WORK\FINAL_YEAR_PROJECT\FINAL_YEAR_PROJECT\BASE ENGINE\WIN32ENGINE\DEBUG\SPRITEMANAGER.OBJ|E:\PROJECTS\FYP WORK\FINAL_YEAR_PROJECT\FINAL_YEAR_PROJECT\BASE ENGINE\WIN32ENGINE\DEBUG\STANDARDARROW.OBJ|E:\PROJECTS\FYP WORK\FINAL_YEAR_PROJECT\FINAL_YEAR_PROJECT\BASE ENGINE\WIN32ENGINE\DEBUG\TEAM.OBJ|E:\PROJECTS\FYP WORK\FINAL_YEAR_PROJECT\FINAL_YEAR_PROJECT\BASE ENGINE\WIN32ENGINE\DEBUG\TEXTUREDEMO.OBJ|E:\PROJECTS\FYP WORK\FINAL_YEAR_PROJECT\FINAL_YEAR_PROJECT\BASE ENGINE\WIN32ENGINE\DEBUG\TIME.OBJ|E:\PROJECTS\FYP WORK\FINAL_YEAR_PROJECT\FINAL_YEAR_PROJECT\BASE ENGINE\WIN32ENGINE\DEBUG\TRIANGLEDEMO.OBJ|E:\PROJECTS\FYP WORK\FINAL_YEAR_PROJECT\FINAL_YEAR_PROJECT\BASE ENGINE\WIN32ENGINE\DEBUG\UTIL.OBJ|E:\PROJECTS\FYP WORK\FINAL_YEAR_PROJECT\FINAL_YEAR_PROJECT\BASE ENGINE\WIN32ENGINE\DEBUG\WEAPON.OBJ
C:\WINDOWS\GLOBALIZATION\SORTING\SORTDEFAULT.NLS
D:\PROGRAM FILES\VISUAL STUDIO 14\VC\LIB\LEGACY_STDIO_DEFINITIONS.LIB
C:\PROGRAM FILES (X86)\MICROSOFT DIRECTX SDK (JUNE 2010)\LIB\X86\D3DCOMPILER.LIB
C:\PROGRAM FILES (X86)\MICROSOFT DIRECTX SDK (JUNE 2010)\LIB\X86\D3D11.LIB
C:\PROGRAM FILES (X86)\MICROSOFT DIRECTX SDK (JUNE 2010)\LIB\X86\D3DX11.LIB
C:\PROGRAM FILES (X86)\MICROSOFT DIRECTX SDK (JUNE 2010)\LIB\X86\DXERR.LIB
C:\PROGRAM FILES (X86)\WINDOWS KITS\8.1\LIB\WINV6.3\UM\X86\KERNEL32.LIB
C:\PROGRAM FILES (X86)\WINDOWS KITS\8.1\LIB\WINV6.3\UM\X86\USER32.LIB
C:\PROGRAM FILES (X86)\WINDOWS KITS\8.1\LIB\WINV6.3\UM\X86\GDI32.LIB
C:\PROGRAM FILES (X86)\WINDOWS KITS\8.1\LIB\WINV6.3\UM\X86\WINSPOOL.LIB
C:\PROGRAM FILES (X86)\WINDOWS KITS\8.1\LIB\WINV6.3\UM\X86\COMDLG32.LIB
C:\PROGRAM FILES (X86)\WINDOWS KITS\8.1\LIB\WINV6.3\UM\X86\ADVAPI32.LIB
C:\PROGRAM FILES (X86)\WINDOWS KITS\8.1\LIB\WINV6.3\UM\X86\SHELL32.LIB
C:\PROGRAM FILES (X86)\WINDOWS KITS\8.1\LIB\WINV6.3\UM\X86\OLE32.LIB
C:\PROGRAM FILES (X86)\WINDOWS KITS\8.1\LIB\WINV6.3\UM\X86\OLEAUT32.LIB
C:\PROGRAM FILES (X86)\WINDOWS KITS\8.1\LIB\WINV6.3\UM\X86\UUID.LIB
C:\PROGRAM FILES (X86)\WINDOWS KITS\8.1\LIB\WINV6.3\UM\X86\ODBC32.LIB
C:\PROGRAM FILES (X86)\WINDOWS KITS\8.1\LIB\WINV6.3\UM\X86\ODBCCP32.LIB
E:\PROJECTS\FYP WORK\FINAL_YEAR_PROJECT\FINAL_YEAR_PROJECT\BASE ENGINE\WIN32ENGINE\DEBUG\AMMUNITION.OBJ
E:\PROJECTS\FYP WORK\FINAL_YEAR_PROJECT\FINAL_YEAR_PROJECT\BASE ENGINE\WIN32ENGINE\DEBUG\ARROW.OBJ
E:\PROJECTS\FYP WORK\FINAL_YEAR_PROJECT\FINAL_YEAR_PROJECT\BASE ENGINE\WIN32ENGINE\DEBUG\BEHAVIOUR.OBJ
E:\PROJECTS\FYP WORK\FINAL_YEAR_PROJECT\FINAL_YEAR_PROJECT\BASE ENGINE\WIN32ENGINE\DEBUG\BOW.OBJ
E:\PROJECTS\FYP WORK\FINAL_YEAR_PROJECT\FINAL_YEAR_PROJECT\BASE ENGINE\WIN32ENGINE\DEBUG\D3DMANAGER.OBJ
E:\PROJECTS\FYP WORK\FINAL_YEAR_PROJECT\FINAL_YEAR_PROJECT\BASE ENGINE\WIN32ENGINE\DEBUG\GENERAL.OBJ
E:\PROJECTS\FYP WORK\FINAL_YEAR_PROJECT\FINAL_YEAR_PROJECT\BASE ENGINE\WIN32ENGINE\DEBUG\PROJECTILE.OBJ
E:\PROJECTS\FYP WORK\FINAL_YEAR_PROJECT\FINAL_YEAR_PROJECT\BASE ENGINE\WIN32ENGINE\DEBUG\RECRUIT.OBJ
E:\PROJECTS\FYP WORK\FINAL_YEAR_PROJECT\FINAL_YEAR_PROJECT\BASE ENGINE\WIN32ENGINE\DEBUG\SERGENT.OBJ
E:\PROJECTS\FYP WORK\FINAL_YEAR_PROJECT\FINAL_YEAR_PROJECT\BASE ENGINE\WIN32ENGINE\DEBUG\SOLDIER.OBJ
E:\PROJECTS\FYP WORK\FINAL_YEAR_PROJECT\FINAL_YEAR_PROJECT\BASE ENGINE\WIN32ENGINE\DEBUG\SOURCE.OBJ
E:\PROJECTS\FYP WORK\FINAL_YEAR_PROJECT\FINAL_YEAR_PROJECT\BASE ENGINE\WIN32ENGINE\DEBUG\SPRITE.OBJ
E:\PROJECTS\FYP WORK\FINAL_YEAR_PROJECT\FINAL_YEAR_PROJECT\BASE ENGINE\WIN32ENGINE\DEBUG\SPRITEMANAGER.OBJ
E:\PROJECTS\FYP WORK\FINAL_YEAR_PROJECT\FINAL_YEAR_PROJECT\BASE ENGINE\WIN32ENGINE\DEBUG\STANDARDARROW.OBJ
E:\PROJECTS\FYP WORK\FINAL_YEAR_PROJECT\FINAL_YEAR_PROJECT\BASE ENGINE\WIN32ENGINE\DEBUG\TEAM.OBJ
E:\PROJECTS\FYP WORK\FINAL_YEAR_PROJECT\FINAL_YEAR_PROJECT\BASE ENGINE\WIN32ENGINE\DEBUG\TIME.OBJ
E:\PROJECTS\FYP WORK\FINAL_YEAR_PROJECT\FINAL_YEAR_PROJECT\BASE ENGINE\WIN32ENGINE\DEBUG\BLANKDEMO.OBJ
E:\PROJECTS\FYP WORK\FINAL_YEAR_PROJECT\FINAL_YEAR_PROJECT\BASE ENGINE\WIN32ENGINE\DEBUG\DX11DEMOBASE.OBJ
E:\PROJECTS\FYP WORK\FINAL_YEAR_PROJECT\FINAL_YEAR_PROJECT\BASE ENGINE\WIN32ENGINE\DEBUG\GAMESPRITE.OBJ
E:\PROJECTS\FYP WORK\FINAL_YEAR_PROJECT\FINAL_YEAR_PROJECT\BASE ENGINE\WIN32ENGINE\DEBUG\GAMESPRITEDEMO.OBJ
E:\PROJECTS\FYP WORK\FINAL_YEAR_PROJECT\FINAL_YEAR_PROJECT\BASE ENGINE\WIN32ENGINE\DEBUG\TEXTUREDEMO.OBJ
E:\PROJECTS\FYP WORK\FINAL_YEAR_PROJECT\FINAL_YEAR_PROJECT\BASE ENGINE\WIN32ENGINE\DEBUG\TRIANGLEDEMO.OBJ
E:\PROJECTS\FYP WORK\FINAL_YEAR_PROJECT\FINAL_YEAR_PROJECT\BASE ENGINE\WIN32ENGINE\DEBUG\UTIL.OBJ
E:\PROJECTS\FYP WORK\FINAL_YEAR_PROJECT\FINAL_YEAR_PROJECT\BASE ENGINE\WIN32ENGINE\DEBUG\WEAPON.OBJ
C:\WINDOWS\SYSTEM32\TZRES.DLL
D:\PROGRAM FILES\VISUAL STUDIO 14\VC\LIB\MSVCPRTD.LIB
D:\PROGRAM FILES\VISUAL STUDIO 14\VC\LIB\MSVCRTD.LIB
D:\PROGRAM FILES\VISUAL STUDIO 14\VC\LIB\OLDNAMES.LIB
D:\PROGRAM FILES\VISUAL STUDIO 14\VC\LIB\VCRUNTIMED.LIB
C:\PROGRAM FILES (X86)\WINDOWS KITS\10\LIB\10.0.10240.0\UCRT\X86\UCRTD.LIB
D:\PROGRAM FILES\VISUAL STUDIO 14\VC\LIB\LEGACY_STDIO_WIDE_SPECIFIERS.LIB
