^C:\USERS\GEORGE\DESKTOP\FYP WORK\SIMULATION ENGINE\SIMULATION ENGINE\SIMULATION ENGINE\DEBUG\MAIN.OBJ
C:\USERS\GEORGE\DESKTOP\FYP WORK\SIMULATION ENGINE\SIMULATION ENGINE\DEBUG\SIMULATION ENGINE.ILK
C:\USERS\GEORGE\DESKTOP\FYP WORK\SIMULATION ENGINE\SIMULATION ENGINE\DEBUG\SIMULATION ENGINE.EXE
C:\USERS\GEORGE\DESKTOP\FYP WORK\SIMULATION ENGINE\SIMULATION ENGINE\DEBUG\SIMULATION ENGINE.PDB
