^E:\PROJECTS\FYP WORK\FINAL_YEAR_PROJECT\FINAL_YEAR_PROJECT\BASE ENGINE\WIN32ENGINE\ASSETS\SHADERS\SPRITESHADER.FX
^E:\PROJECTS\FYP WORK\FINAL_YEAR_PROJECT\FINAL_YEAR_PROJECT\BASE ENGINE\WIN32ENGINE\TUTORIALS\TEXTUREMAP.FX
^E:\PROJECTS\FYP WORK\FINAL_YEAR_PROJECT\FINAL_YEAR_PROJECT\BASE ENGINE\WIN32ENGINE\TUTORIALS\TEXTUREMAPTEXTUREDEMO.FX
^E:\PROJECTS\FYP WORK\FINAL_YEAR_PROJECT\FINAL_YEAR_PROJECT\BASE ENGINE\WIN32ENGINE\TUTORIALS\TRIANGLETEXTURE.FX
^E:\PROJECTS\FYP WORK\FINAL_YEAR_PROJECT\FINAL_YEAR_PROJECT\BASE ENGINE\WIN32ENGINE\TUTORIALS\SOLIDGREENCOLOR.FX
